…
```
## # A tibble: 92 × 22
##    state county      race  ethnicity sex   age   zip   booking_date booking_time
##    <chr> <chr>       <lgl> <lgl>     <lgl> <lgl> <lgl> <lgl>        <lgl>       
##  1 Texas Anderson C… TRUE  TRUE      TRUE  FALSE TRUE  TRUE         FALSE       
##  2 Texas Angelina C… TRUE  TRUE      TRUE  TRUE  FALSE TRUE         TRUE        
##  3 Texas Austin Cou… TRUE  TRUE      TRUE  TRUE  FALSE TRUE         TRUE        
##  4 Texas Bell County TRUE  TRUE      TRUE  TRUE  FALSE TRUE         TRUE        
##  5 Texas Blanco Cou… TRUE  TRUE      TRUE  TRUE  TRUE  TRUE         FALSE       
##  6 Texas Bosque Cou… TRUE  TRUE      TRUE  TRUE  TRUE  TRUE         FALSE       
##  7 Texas Bowie Coun… TRUE  TRUE      TRUE  TRUE  FALSE TRUE         TRUE        
##  8 Texas Brazoria C… TRUE  TRUE      FALSE FALSE FALSE TRUE         TRUE        
##  9 Texas Brazos Cou… TRUE  TRUE      TRUE  TRUE  FALSE TRUE         TRUE        
## 10 Texas Chambers C… TRUE  TRUE      TRUE  FALSE FALSE TRUE         TRUE        
## # ℹ 82 more rows
## # ℹ 13 more variables: release_date <lgl>, release_time <lgl>, charge <lgl>,
## #   statute <lgl>, severity <lgl>, release_type <lgl>, court <lgl>,
## #   warrant_type <lgl>, bond <lgl>, fine <lgl>, note <lgl>,
## #   length_of_stay <lgl>, ftp <lgl>
```
…
